<svg width="201" height="68" viewBox="0 0 201 68" fill="none" xmlns="http://www.w3.org/2000/svg">
<rect y="0.322754" width="200.603" height="67.2072" rx="33.6036" fill="white"/>
<path d="M103.816 37.4893C102.7 37.4946 101.61 37.8304 100.684 38.4545C99.7586 39.0786 99.0384 39.963 98.6148 40.996C98.1912 42.029 98.0831 43.1643 98.3041 44.2587C98.5251 45.353 99.0654 46.3574 99.8567 47.145C100.648 47.9326 101.655 48.4682 102.75 48.6841C103.846 48.9 104.981 48.7865 106.012 48.3581C107.043 47.9296 107.924 47.2053 108.543 46.2766C109.163 45.348 109.494 44.2565 109.494 43.14C109.505 42.3927 109.365 41.6509 109.083 40.9587C108.801 40.2664 108.383 39.638 107.853 39.1107C107.324 38.5835 106.693 38.1682 106 37.8897C105.306 37.6111 104.564 37.475 103.816 37.4893V37.4893ZM103.816 46.5704C103.13 46.6184 102.445 46.4587 101.85 46.1122C101.255 45.7656 100.779 45.2482 100.482 44.6271C100.185 44.006 100.082 43.3101 100.186 42.6297C100.29 41.9493 100.597 41.316 101.065 40.812C101.534 40.308 102.144 39.9567 102.815 39.8038C103.486 39.6509 104.188 39.7034 104.828 39.9545C105.469 40.2056 106.02 40.6436 106.408 41.2118C106.797 41.7799 107.006 42.4517 107.007 43.14C107.029 43.5762 106.963 44.0122 106.813 44.4223C106.663 44.8325 106.433 45.2085 106.135 45.5282C105.838 45.8479 105.48 46.1049 105.081 46.2838C104.683 46.4628 104.253 46.5603 103.816 46.5704ZM91.438 37.4893C90.3209 37.4919 89.2297 37.8256 88.3022 38.4481C87.3747 39.0706 86.6525 39.954 86.2268 40.9868C85.8012 42.0196 85.6912 43.1553 85.9107 44.2506C86.1302 45.3458 86.6695 46.3515 87.4603 47.1404C88.2511 47.9293 89.258 48.4662 90.3537 48.6832C91.4495 48.9001 92.585 48.7874 93.6168 48.3594C94.6485 47.9313 95.5303 47.207 96.1506 46.278C96.7709 45.3491 97.102 44.2571 97.102 43.14C97.1128 42.3927 96.9732 41.6509 96.6914 40.9587C96.4096 40.2664 95.9914 39.638 95.4616 39.1107C94.9319 38.5835 94.3015 38.1682 93.608 37.8897C92.9144 37.6111 92.1719 37.475 91.4247 37.4893H91.438ZM91.438 46.5704C90.751 46.6211 90.0647 46.4638 89.4684 46.1191C88.872 45.7743 88.3933 45.2579 88.0945 44.6373C87.7957 44.0166 87.6907 43.3204 87.7932 42.6392C87.8956 41.9581 88.2007 41.3235 88.6688 40.8182C89.137 40.3129 89.7464 39.9602 90.4177 39.806C91.0891 39.6519 91.7913 39.7034 92.433 39.9539C93.0746 40.2045 93.626 40.6424 94.0153 41.2106C94.4046 41.7789 94.6138 42.4512 94.6157 43.14C94.6371 43.5762 94.571 44.0122 94.4212 44.4223C94.2714 44.8325 94.0411 45.2085 93.7437 45.5282C93.4462 45.8479 93.0878 46.1049 92.6896 46.2838C92.2913 46.4628 91.8612 46.5603 91.4247 46.5704H91.438ZM76.6928 39.2311V41.6243H82.4367C82.3466 42.7515 81.878 43.8152 81.1071 44.6425C80.5324 45.2278 79.8416 45.6864 79.0791 45.9886C78.3165 46.2909 77.4992 46.4302 76.6795 46.3975C74.9869 46.3975 73.3636 45.7251 72.1668 44.5283C70.9699 43.3314 70.2975 41.7081 70.2975 40.0155C70.2975 38.3229 70.9699 36.6996 72.1668 35.5027C73.3636 34.3059 74.9869 33.6335 76.6795 33.6335C78.2987 33.6071 79.8623 34.2239 81.0273 35.3487L82.7159 33.6601C81.9294 32.8637 80.9911 32.2333 79.9565 31.8062C78.9219 31.3791 77.8121 31.1641 76.6928 31.1738C75.5108 31.1278 74.3317 31.3208 73.2261 31.7415C72.1205 32.1621 71.1112 32.8015 70.2586 33.6215C69.4061 34.4416 68.7279 35.4252 68.2646 36.5136C67.8013 37.6021 67.5625 38.7728 67.5625 39.9557C67.5625 41.1386 67.8013 42.3093 68.2646 43.3977C68.7279 44.4861 69.4061 45.4698 70.2586 46.2898C71.1112 47.1098 72.1205 47.7493 73.2261 48.1699C74.3317 48.5905 75.5108 48.7836 76.6928 48.7376C77.8309 48.789 78.9668 48.5961 80.024 48.1718C81.0813 47.7475 82.0354 47.1017 82.8222 46.2779C84.2152 44.7474 84.9589 42.7355 84.8964 40.667C84.9007 40.1631 84.8562 39.6599 84.7634 39.1646L76.6928 39.2311ZM136.936 41.0925C136.59 40.0723 135.941 39.1816 135.077 38.5381C134.213 37.8947 133.173 37.529 132.097 37.4893C131.369 37.4879 130.65 37.6356 129.982 37.9235C129.314 38.2113 128.712 38.633 128.214 39.1626C127.715 39.6922 127.331 40.3185 127.084 41.0026C126.837 41.6867 126.733 42.4142 126.778 43.14C126.762 43.8832 126.896 44.6219 127.172 45.3122C127.447 46.0024 127.86 46.63 128.383 47.1575C128.907 47.6849 129.532 48.1014 130.22 48.382C130.908 48.6627 131.646 48.8017 132.389 48.7908C133.319 48.7958 134.236 48.5701 135.057 48.1339C135.879 47.6976 136.579 47.0645 137.096 46.2912L135.168 44.9616C134.88 45.4413 134.473 45.838 133.986 46.1131C133.499 46.3881 132.949 46.5319 132.389 46.5305C131.813 46.5524 131.244 46.4006 130.756 46.0947C130.267 45.7888 129.882 45.343 129.65 44.8153L137.216 41.6908L136.936 41.0925ZM129.225 42.9805C129.198 42.5692 129.253 42.1568 129.388 41.7672C129.522 41.3776 129.733 41.0188 130.008 40.7117C130.283 40.4046 130.616 40.1555 130.989 39.9788C131.361 39.8022 131.765 39.7017 132.177 39.6831C132.605 39.6549 133.033 39.7532 133.407 39.9659C133.78 40.1787 134.083 40.4964 134.277 40.8797L129.225 42.9805ZM123.082 48.4584H125.568V31.8386H123.082V48.4584ZM119.014 38.7524H118.921C118.546 38.3335 118.087 37.9984 117.573 37.7693C117.06 37.5402 116.504 37.4221 115.942 37.4228C114.489 37.4933 113.119 38.1201 112.116 39.1733C111.112 40.2266 110.553 41.6255 110.553 43.0802C110.553 44.5349 111.112 45.9338 112.116 46.9871C113.119 48.0403 114.489 48.6671 115.942 48.7376C116.506 48.7471 117.064 48.6329 117.579 48.4032C118.093 48.1735 118.551 47.8338 118.921 47.408H119V48.2191C119 50.3863 117.844 51.543 115.982 51.543C115.362 51.5285 114.761 51.3299 114.254 50.9723C113.747 50.6148 113.358 50.1146 113.137 49.5354L110.97 50.4395C111.378 51.4318 112.073 52.2797 112.966 52.8743C113.859 53.4689 114.909 53.7831 115.982 53.7767C118.894 53.7767 121.3 52.0616 121.3 47.8867V37.8217H119.014V38.7524ZM116.168 46.5704C115.311 46.4948 114.512 46.1007 113.931 45.4657C113.349 44.8308 113.027 44.001 113.027 43.14C113.027 42.2791 113.349 41.4493 113.931 40.8144C114.512 40.1794 115.311 39.7853 116.168 39.7097C116.594 39.7315 117.01 39.8382 117.393 40.0235C117.777 40.2088 118.119 40.469 118.4 40.7887C118.682 41.1083 118.896 41.4811 119.031 41.8849C119.166 42.2887 119.219 42.7155 119.186 43.14C119.223 43.5664 119.172 43.9957 119.038 44.402C118.903 44.8083 118.688 45.1831 118.405 45.5038C118.121 45.8244 117.776 46.0843 117.389 46.2676C117.002 46.4509 116.583 46.5539 116.155 46.5704H116.168ZM148.584 31.8386H142.64V48.4584H145.127V42.1561H148.597C149.306 42.2071 150.017 42.1114 150.687 41.8752C151.357 41.6391 151.971 41.2674 152.491 40.7833C153.011 40.2993 153.426 39.7134 153.71 39.062C153.993 38.4106 154.14 37.7078 154.14 36.9974C154.14 36.2869 153.993 35.5841 153.71 34.9327C153.426 34.2814 153.011 33.6954 152.491 33.2114C151.971 32.7273 151.357 32.3557 150.687 32.1195C150.017 31.8833 149.306 31.7876 148.597 31.8386H148.584ZM148.584 39.8161H145.113V34.152H148.637C149.393 34.152 150.119 34.4525 150.653 34.9874C151.188 35.5222 151.489 36.2476 151.489 37.004C151.489 37.7604 151.188 38.4858 150.653 39.0206C150.119 39.5555 149.393 39.856 148.637 39.856L148.584 39.8161ZM163.914 37.4228C163.009 37.3687 162.107 37.5802 161.321 38.0314C160.534 38.4826 159.897 39.1537 159.486 39.9623L161.693 40.8797C161.911 40.4787 162.24 40.1495 162.642 39.9323C163.043 39.7152 163.499 39.6193 163.954 39.6565C164.269 39.6197 164.589 39.646 164.894 39.7341C165.2 39.8221 165.484 39.9701 165.732 40.1694C165.98 40.3686 166.185 40.6152 166.336 40.8947C166.487 41.1741 166.581 41.4809 166.613 41.7972V41.97C165.814 41.5472 164.924 41.328 164.02 41.3318C161.64 41.3318 159.234 42.6614 159.234 45.0679C159.257 45.5811 159.383 46.0843 159.605 46.5478C159.826 47.0114 160.138 47.4259 160.522 47.7667C160.906 48.1076 161.355 48.368 161.842 48.5325C162.328 48.6969 162.843 48.7622 163.355 48.7243C163.981 48.7693 164.608 48.6449 165.17 48.3641C165.731 48.0834 166.207 47.6567 166.546 47.1288H166.626V48.4584H169.019V42.0631C169.019 39.1513 166.812 37.4627 163.98 37.4627L163.914 37.4228ZM163.608 46.5305C162.797 46.5305 161.667 46.1183 161.667 45.1211C161.667 43.7915 163.076 43.3528 164.326 43.3528C165.116 43.3333 165.896 43.5261 166.586 43.9112C166.503 44.631 166.163 45.2966 165.628 45.7852C165.092 46.2739 164.399 46.5527 163.674 46.5704L163.608 46.5305ZM177.741 37.8217L174.896 45.0281H174.816L171.865 37.8217H169.205L173.633 47.9L171.107 53.4975H173.699L180.507 37.8217H177.741ZM155.391 48.4584H157.877V31.8386H155.391V48.4584Z" fill="#455154"/>
<path d="M76.1833 22.2689C76.2059 22.7566 76.1292 23.2438 75.9578 23.7009C75.7863 24.158 75.5238 24.5755 75.1861 24.9281C74.8091 25.3198 74.3537 25.6276 73.8497 25.8315C73.3457 26.0354 72.8044 26.1308 72.261 26.1114C71.4367 26.105 70.6325 25.8554 69.9494 25.3939C69.2663 24.9325 68.7345 24.2797 68.4208 23.5173C68.107 22.7549 68.0253 21.9169 68.1857 21.1083C68.3461 20.2997 68.7416 19.5564 69.3226 18.9716C69.7045 18.5817 70.1623 18.2743 70.6677 18.0685C71.1732 17.8627 71.7155 17.7628 72.261 17.7749C72.8231 17.7731 73.3797 17.8862 73.8964 18.1073C74.3775 18.3014 74.8058 18.6067 75.1462 18.9981L74.4416 19.7028C74.1762 19.3872 73.841 19.1376 73.4626 18.9737C73.0842 18.8099 72.6728 18.7363 72.261 18.7588C71.8457 18.7568 71.4343 18.8386 71.0514 18.9995C70.6685 19.1603 70.322 19.3968 70.0327 19.6948C69.7434 19.9928 69.5173 20.3461 69.3678 20.7336C69.2184 21.1211 69.1488 21.5348 69.1631 21.9498C69.1544 22.5696 69.3294 23.1781 69.6661 23.6985C70.0028 24.2189 70.4861 24.6279 71.055 24.8739C71.6239 25.12 72.2529 25.192 72.8627 25.081C73.4725 24.97 74.0358 24.6808 74.4814 24.25C74.8906 23.8066 75.1265 23.2309 75.1462 22.6279H72.261V21.6706H76.1301C76.1656 21.8681 76.1834 22.0683 76.1833 22.2689ZM82.2728 18.945H78.6829V21.4712H81.9537V22.4285H78.6829V24.9547H82.2728V25.9386H77.6193V17.9611H82.2728V18.945ZM86.6339 25.9386H85.6101V18.945H83.3764V17.9611H88.9208V18.945H86.6339V25.9386ZM92.8297 25.9386V17.9611H93.8535V25.9386H92.8297ZM98.4007 25.9386H97.3769V18.945H95.1432V17.9611H100.621V18.945H98.4007V25.9386ZM111.005 24.9015C110.228 25.6745 109.176 26.1083 108.08 26.1083C106.984 26.1083 105.932 25.6745 105.155 24.9015C104.4 24.1018 103.979 23.0433 103.979 21.9432C103.979 20.843 104.4 19.7846 105.155 18.9849C105.538 18.5989 105.994 18.2926 106.496 18.0836C106.998 17.8746 107.536 17.767 108.08 17.767C108.624 17.767 109.162 17.8746 109.664 18.0836C110.166 18.2926 110.622 18.5989 111.005 18.9849C111.764 19.783 112.187 20.8421 112.187 21.9432C112.187 23.0443 111.764 24.1033 111.005 24.9015ZM105.913 24.2367C106.488 24.8099 107.268 25.1318 108.08 25.1318C108.892 25.1318 109.672 24.8099 110.247 24.2367C110.815 23.6105 111.13 22.7953 111.13 21.9498C111.13 21.1044 110.815 20.2892 110.247 19.6629C109.672 19.0897 108.892 18.7679 108.08 18.7679C107.268 18.7679 106.488 19.0897 105.913 19.6629C105.345 20.2892 105.03 21.1044 105.03 21.9498C105.03 22.7953 105.345 23.6105 105.913 24.2367ZM113.624 25.9386V17.9611H114.874L118.757 24.1702V17.9611H119.78V25.9386H118.717L114.662 19.4369V25.9386H113.624Z" fill="white"/>
<path fill-rule="evenodd" clip-rule="evenodd" d="M108.08 17.9C107.554 17.9 107.033 18.0041 106.547 18.2064C106.062 18.4084 105.621 18.7044 105.251 19.0774C104.519 19.8522 104.112 20.8775 104.112 21.9432C104.112 23.0087 104.519 24.0338 105.25 24.8087C106.002 25.556 107.02 25.9754 108.08 25.9754C109.141 25.9754 110.158 25.5559 110.91 24.8085C111.644 24.0352 112.054 23.0096 112.054 21.9432C112.054 20.8767 111.644 19.8509 110.91 19.0775C110.539 18.7045 110.099 18.4085 109.613 18.2064C109.127 18.0041 108.606 17.9 108.08 17.9ZM106.445 17.9609C106.963 17.7451 107.519 17.634 108.08 17.634C108.641 17.634 109.197 17.7451 109.715 17.9609C110.234 18.1766 110.704 18.4928 111.1 18.8912L111.102 18.8932C111.884 19.7161 112.32 20.808 112.32 21.9432C112.32 23.0784 111.884 24.1702 111.102 24.9931L111.099 24.9958C110.297 25.7936 109.211 26.2413 108.08 26.2413C106.949 26.2413 105.863 25.7935 105.061 24.9958L105.058 24.9929C104.279 24.1685 103.846 23.0773 103.846 21.9432C103.846 20.8091 104.28 19.7179 105.058 18.8935L105.061 18.8911C105.456 18.4928 105.927 18.1766 106.445 17.9609ZM72.2581 17.9079C71.7307 17.8961 71.2065 17.9927 70.7179 18.1917C70.2293 18.3906 69.7868 18.6877 69.4176 19.0646L69.417 19.0653C68.8544 19.6315 68.4714 20.3512 68.3161 21.1342C68.1608 21.9172 68.2399 22.7285 68.5437 23.4667C68.8475 24.2048 69.3624 24.8369 70.0238 25.2837C70.6853 25.7306 71.4639 25.9722 72.2621 25.9785L72.2658 25.9785C72.7904 25.9972 73.3131 25.9051 73.7998 25.7082C74.2865 25.5114 74.7261 25.2142 75.0902 24.836C75.4154 24.4965 75.6682 24.0944 75.8333 23.6542C75.9984 23.214 76.0723 22.7448 76.0505 22.2751L76.1833 22.2689L76.0504 22.2689C76.0504 22.1131 76.0393 21.9576 76.017 21.8036H72.394V22.495H75.2836L75.2791 22.6323C75.2584 23.2671 75.0099 23.8734 74.5792 24.3402L74.574 24.3458C74.1095 24.7948 73.5222 25.0961 72.8866 25.2118C72.2509 25.3275 71.5952 25.2524 71.0022 24.996C70.4092 24.7395 69.9055 24.3131 69.5545 23.7707C69.2041 23.2291 69.0217 22.5961 69.0301 21.9512C69.0156 21.5193 69.0883 21.0889 69.2438 20.6857C69.3997 20.2815 69.6355 19.913 69.9373 19.6022C70.2391 19.2913 70.6005 19.0446 70.9999 18.8769C71.3981 18.7096 71.8259 18.6243 72.2577 18.6258C72.6888 18.6029 73.1193 18.6802 73.5154 18.8517C73.8685 19.0046 74.1856 19.2285 74.4474 19.509L74.9628 18.9935C74.6507 18.6618 74.27 18.4014 73.8467 18.2306L73.8441 18.2296C73.344 18.0156 72.8054 17.9061 72.2615 17.9079L72.2581 17.9079ZM76.3163 22.2659C76.3392 22.7705 76.2596 23.2746 76.0823 23.7476C75.9045 24.2216 75.6323 24.6545 75.2821 25.0201C74.8921 25.4252 74.4209 25.7439 73.8996 25.9548C73.3788 26.1654 72.8195 26.2641 72.2582 26.2444C71.4083 26.2374 70.5793 25.9799 69.875 25.5041C69.1702 25.028 68.6215 24.3545 68.2978 23.5679C67.9741 22.7813 67.8897 21.9167 68.0553 21.0824C68.2208 20.2483 68.6287 19.4815 69.228 18.8782C69.6225 18.4755 70.0955 18.158 70.6176 17.9454C71.1393 17.7329 71.6991 17.6296 72.2623 17.642C72.8415 17.6403 73.4149 17.7568 73.9475 17.9845C74.4475 18.1865 74.8927 18.5039 75.2466 18.9109L75.3279 19.0045L74.4331 19.8993L74.3398 19.7884C74.0877 19.4885 73.7693 19.2514 73.4098 19.0957C73.0503 18.9401 72.6595 18.8702 72.2683 18.8916L72.2604 18.892C71.863 18.8901 71.4693 18.9681 71.1029 19.122C70.7365 19.2759 70.4049 19.5022 70.1281 19.7874C69.8513 20.0725 69.6349 20.4106 69.4919 20.7814C69.3489 21.1522 69.2823 21.5481 69.296 21.9452L69.2962 21.9517C69.2879 22.5452 69.4553 23.1279 69.7778 23.6262C70.1002 24.1246 70.563 24.5163 71.1078 24.7519C71.6526 24.9875 72.255 25.0565 72.8389 24.9502C73.4216 24.8441 73.96 24.5681 74.3863 24.1571C74.7411 23.7714 74.9578 23.2803 75.0049 22.7609H72.1281V21.5377H76.2413L76.261 21.6471C76.2977 21.8513 76.3162 22.0584 76.3163 22.2659ZM77.4863 17.8281H82.4058V19.0779H78.8159V21.3382H82.0867V22.5614H78.8159V24.8217H82.4058V26.0715H77.4863V17.8281ZM77.7522 18.094V25.8056H82.1399V25.0877H78.55V22.2955H81.8208V21.6041H78.55V18.812H82.1399V18.094H77.7522ZM83.2434 17.8281H89.0537V19.0779H86.7668V26.0715H85.4771V19.0779H83.2434V17.8281ZM83.5093 18.094V18.812H85.7431V25.8056H86.5009V18.812H88.7878V18.094H83.5093ZM92.6968 17.8281H93.9865V26.0715H92.6968V17.8281ZM92.9627 18.094V25.8056H93.7206V18.094H92.9627ZM95.0103 17.8281H100.754V19.0779H98.5337V26.0715H97.244V19.0779H95.0103V17.8281ZM95.2762 18.094V18.812H97.5099V25.8056H98.2678V18.812H100.488V18.094H95.2762ZM113.492 17.8281H114.948L118.624 23.7068V17.8281H119.913V26.0715H118.643L114.795 19.9013V26.0715H113.492V17.8281ZM113.757 18.094V25.8056H114.529V18.9725L118.791 25.8056H119.648V18.094H118.89V24.6337L114.801 18.094H113.757ZM105.819 19.5687C106.42 18.9707 107.233 18.6349 108.08 18.6349C108.928 18.6349 109.741 18.9707 110.341 19.5687L110.346 19.5735C110.936 20.2242 111.263 21.0713 111.263 21.9498C111.263 22.8283 110.936 23.6754 110.346 24.326L110.341 24.3311C109.741 24.9291 108.928 25.2647 108.08 25.2647C107.233 25.2647 106.42 24.929 105.819 24.3309L105.913 24.2367L105.814 24.326C105.224 23.6754 104.897 22.8283 104.897 21.9498C104.897 21.0713 105.224 20.2243 105.814 19.5736L105.819 19.5687ZM106.009 24.1449C106.56 24.6918 107.304 24.9988 108.08 24.9988C108.856 24.9988 109.601 24.6918 110.151 24.1449C110.696 23.5435 110.997 22.7612 110.997 21.9498C110.997 21.1385 110.696 20.3562 110.151 19.7548C109.601 19.2079 108.856 18.9009 108.08 18.9009C107.304 18.9009 106.56 19.2079 106.009 19.7548C105.465 20.3562 105.163 21.1385 105.163 21.9498C105.163 22.7612 105.465 23.5435 106.009 24.1449Z" fill="white"/>
<path d="M27.0929 18.5959C26.6596 19.1159 26.4408 19.7816 26.4813 20.4573V49.8678C26.4408 50.5435 26.6596 51.2092 27.0929 51.7292L27.186 51.8223L43.6596 35.362V34.9764L27.186 18.5028L27.0929 18.5959Z" fill="url(#paint0_linear)"/>
<path d="M49.1115 40.8532L43.6602 35.362V34.9764L49.1115 29.4719L49.2311 29.5384L55.7594 33.248C57.6208 34.2983 57.6208 36.0268 55.7594 37.0905L49.2577 40.7867L49.1115 40.8532Z" fill="url(#paint1_linear)"/>
<path d="M49.2713 40.7735L43.6604 35.1626L27.0938 51.7292C27.4732 52.0628 27.9572 52.2533 28.4621 52.2679C28.9671 52.2824 29.4613 52.1201 29.8593 51.809L49.2846 40.7735" fill="url(#paint2_linear)"/>
<path d="M49.2728 29.5518L29.8476 18.5163C29.4496 18.2051 28.9554 18.0429 28.4504 18.0574C27.9455 18.072 27.4614 18.2625 27.082 18.596L43.662 35.1627L49.2728 29.5518Z" fill="url(#paint3_linear)"/>
<path opacity="0.2" d="M49.1117 40.6538L29.846 51.6229C29.4621 51.9099 28.9957 52.065 28.5164 52.065C28.0371 52.065 27.5707 51.9099 27.1868 51.6229L27.0938 51.716L27.1868 51.809C27.5698 52.0981 28.0366 52.2545 28.5164 52.2545C28.9962 52.2545 29.463 52.0981 29.846 51.809L49.2713 40.7735L49.1117 40.6538Z" fill="black"/>
<path opacity="0.12" d="M27.0929 51.5431C26.6596 51.0231 26.4408 50.3574 26.4813 49.6817V49.8811C26.4408 50.5568 26.6596 51.2225 27.0929 51.7425L27.186 51.6495L27.0929 51.5431ZM55.7588 36.8911L49.1109 40.6538L49.2306 40.7735L55.7588 37.0772C56.1292 36.9032 56.4472 36.6346 56.6807 36.2984C56.9141 35.9623 57.0548 35.5705 57.0884 35.1626C57.0136 35.5332 56.8549 35.8817 56.6244 36.1813C56.3939 36.4809 56.0978 36.7237 55.7588 36.8911Z" fill="black"/>
<path opacity="0.25" d="M29.8459 18.702L55.7595 33.4339C56.0985 33.6012 56.3947 33.844 56.6251 34.1436C56.8556 34.4433 57.0144 34.7918 57.0891 35.1623C57.0555 34.7545 56.9148 34.3627 56.6814 34.0265C56.4479 33.6904 56.13 33.4217 55.7595 33.2477L29.8459 18.5159C27.9845 17.4655 26.4688 18.3431 26.4688 20.4704V20.6698C26.5086 18.5292 27.9978 17.6517 29.8459 18.702V18.702Z" fill="white"/>
<path d="M70.1709 14.7992H73.7878C74.4558 14.7992 75.0342 14.9133 75.523 15.1414C76.0118 15.3695 76.411 15.6831 76.7205 16.0823C77.0301 16.4733 77.2582 16.9335 77.4048 17.4631C77.5596 17.9926 77.637 18.5587 77.637 19.1616C77.637 19.7644 77.5596 20.3306 77.4048 20.8601C77.2582 21.3896 77.0301 21.8539 76.7205 22.2531C76.411 22.6441 76.0118 22.9537 75.523 23.1818C75.0342 23.4099 74.4558 23.5239 73.7878 23.5239H70.1709V14.7992ZM71.6983 22.2775H73.2013C73.796 22.2775 74.2807 22.2001 74.6554 22.0454C75.0383 21.8824 75.3356 21.6625 75.5474 21.3855C75.7674 21.1004 75.914 20.7705 75.9873 20.3957C76.0688 20.0129 76.1095 19.6015 76.1095 19.1616C76.1095 18.7217 76.0688 18.3143 75.9873 17.9396C75.914 17.5567 75.7674 17.2268 75.5474 16.9498C75.3356 16.6647 75.0383 16.4448 74.6554 16.29C74.2807 16.1271 73.796 16.0456 73.2013 16.0456H71.6983V22.2775ZM80.1136 14.7992H81.5066V16.1189H80.1136V14.7992ZM80.1136 17.2064H81.5066V23.5239H80.1136V17.2064ZM85.3584 21.4955C85.3991 21.9028 85.5539 22.1879 85.8227 22.3509C86.0915 22.5138 86.4133 22.5952 86.788 22.5952C86.9184 22.5952 87.065 22.5871 87.2279 22.5708C87.399 22.5464 87.5579 22.5056 87.7045 22.4486C87.8511 22.3916 87.9693 22.3101 88.0589 22.2042C88.1566 22.0902 88.2014 21.9435 88.1933 21.7643C88.1851 21.5851 88.12 21.4385 87.9978 21.3244C87.8756 21.2104 87.7167 21.1208 87.5212 21.0556C87.3338 20.9823 87.118 20.9212 86.8736 20.8723C86.6292 20.8234 86.3807 20.7705 86.1282 20.7134C85.8675 20.6564 85.615 20.5872 85.3706 20.5057C85.1343 20.4242 84.9185 20.3143 84.7229 20.1758C84.5356 20.0373 84.3849 19.8622 84.2708 19.6503C84.1568 19.4304 84.0998 19.1616 84.0998 18.8439C84.0998 18.5017 84.1812 18.2166 84.3441 17.9885C84.5152 17.7523 84.727 17.5649 84.9796 17.4264C85.2402 17.2798 85.5254 17.1779 85.8349 17.1209C86.1526 17.0639 86.454 17.0354 86.7392 17.0354C87.065 17.0354 87.3746 17.072 87.6678 17.1454C87.9693 17.2105 88.2381 17.3205 88.4743 17.4753C88.7187 17.6301 88.9183 17.8337 89.0731 18.0863C89.236 18.3306 89.3378 18.628 89.3786 18.9783H87.9245C87.8593 18.6443 87.7045 18.4203 87.4601 18.3062C87.2239 18.1922 86.951 18.1351 86.6414 18.1351C86.5437 18.1351 86.4255 18.1433 86.287 18.1596C86.1567 18.1759 86.0304 18.2084 85.9082 18.2573C85.7942 18.2981 85.6964 18.3632 85.615 18.4528C85.5335 18.5343 85.4928 18.6443 85.4928 18.7828C85.4928 18.9538 85.5498 19.0923 85.6638 19.1982C85.786 19.3041 85.9408 19.3937 86.1282 19.4671C86.3237 19.5322 86.5437 19.5892 86.788 19.6381C87.0324 19.687 87.285 19.74 87.5456 19.797C87.7982 19.854 88.0466 19.9232 88.291 20.0047C88.5354 20.0862 88.7513 20.1962 88.9387 20.3346C89.1342 20.4731 89.289 20.6483 89.403 20.8601C89.5252 21.0719 89.5863 21.3326 89.5863 21.6421C89.5863 22.0169 89.5008 22.3346 89.3297 22.5952C89.1586 22.8559 88.9346 23.0677 88.6576 23.2307C88.3888 23.3936 88.0874 23.5117 87.7534 23.585C87.4194 23.6583 87.0895 23.695 86.7636 23.695C86.3644 23.695 85.9938 23.6502 85.6516 23.5606C85.3176 23.471 85.0244 23.3366 84.7718 23.1573C84.5274 22.97 84.3319 22.7419 84.1853 22.473C84.0468 22.1961 83.9735 21.8702 83.9653 21.4955H85.3584ZM91.9637 17.2064H93.2834V18.0618H93.3078C93.5033 17.6952 93.7762 17.4345 94.1265 17.2798C94.4768 17.1168 94.8556 17.0354 95.2629 17.0354C95.7599 17.0354 96.1916 17.125 96.5582 17.3042C96.9329 17.4753 97.2425 17.7156 97.4869 18.0252C97.7313 18.3266 97.9146 18.6809 98.0368 19.0883C98.1589 19.4956 98.22 19.9314 98.22 20.3957C98.22 20.8193 98.163 21.2307 98.049 21.6299C97.9431 22.0291 97.7761 22.3834 97.548 22.693C97.328 22.9944 97.047 23.2388 96.7048 23.4262C96.3627 23.6054 95.9594 23.695 95.4951 23.695C95.2914 23.695 95.0878 23.6746 94.8841 23.6339C94.6805 23.6013 94.485 23.5443 94.2976 23.4628C94.1102 23.3814 93.9351 23.2795 93.7721 23.1573C93.6174 23.027 93.487 22.8763 93.3811 22.7052H93.3567V25.8578H91.9637V17.2064ZM96.827 20.3713C96.827 20.0862 96.7904 19.8092 96.717 19.5404C96.6437 19.2715 96.5338 19.0353 96.3871 18.8316C96.2405 18.6198 96.0572 18.4528 95.8372 18.3306C95.6173 18.2003 95.3648 18.1351 95.0796 18.1351C94.4931 18.1351 94.0491 18.3388 93.7477 18.7461C93.4544 19.1534 93.3078 19.6952 93.3078 20.3713C93.3078 20.689 93.3445 20.9863 93.4178 21.2633C93.4992 21.5321 93.6174 21.7643 93.7721 21.9598C93.9269 22.1553 94.1102 22.3101 94.322 22.4242C94.542 22.5382 94.7945 22.5952 95.0796 22.5952C95.3973 22.5952 95.6662 22.5301 95.8861 22.3997C96.1061 22.2694 96.2853 22.1024 96.4238 21.8987C96.5704 21.6869 96.6722 21.4507 96.7293 21.19C96.7944 20.9212 96.827 20.6483 96.827 20.3713ZM103.576 23.695C103.071 23.695 102.619 23.6135 102.22 23.4506C101.829 23.2795 101.495 23.0474 101.218 22.7541C100.949 22.4608 100.741 22.1105 100.595 21.7032C100.456 21.2959 100.387 20.8479 100.387 20.3591C100.387 19.8784 100.456 19.4345 100.595 19.0272C100.741 18.6198 100.949 18.2695 101.218 17.9763C101.495 17.683 101.829 17.4549 102.22 17.292C102.619 17.1209 103.071 17.0354 103.576 17.0354C104.081 17.0354 104.529 17.1209 104.92 17.292C105.32 17.4549 105.654 17.683 105.922 17.9763C106.199 18.2695 106.407 18.6198 106.546 19.0272C106.692 19.4345 106.765 19.8784 106.765 20.3591C106.765 20.8479 106.692 21.2959 106.546 21.7032C106.407 22.1105 106.199 22.4608 105.922 22.7541C105.654 23.0474 105.32 23.2795 104.92 23.4506C104.529 23.6135 104.081 23.695 103.576 23.695ZM103.576 22.5952C103.886 22.5952 104.155 22.5301 104.383 22.3997C104.611 22.2694 104.798 22.0983 104.945 21.8865C105.091 21.6747 105.197 21.4385 105.262 21.1778C105.336 20.909 105.372 20.6361 105.372 20.3591C105.372 20.0902 105.336 19.8214 105.262 19.5526C105.197 19.2838 105.091 19.0475 104.945 18.8439C104.798 18.6321 104.611 18.461 104.383 18.3306C104.155 18.2003 103.886 18.1351 103.576 18.1351C103.267 18.1351 102.998 18.2003 102.77 18.3306C102.542 18.461 102.354 18.6321 102.208 18.8439C102.061 19.0475 101.951 19.2838 101.878 19.5526C101.813 19.8214 101.78 20.0902 101.78 20.3591C101.78 20.6361 101.813 20.909 101.878 21.1778C101.951 21.4385 102.061 21.6747 102.208 21.8865C102.354 22.0983 102.542 22.2694 102.77 22.3997C102.998 22.5301 103.267 22.5952 103.576 22.5952ZM109.207 17.2064H110.526V18.1351L110.551 18.1596C110.763 17.8093 111.04 17.5364 111.382 17.3409C111.724 17.1372 112.103 17.0354 112.518 17.0354C113.211 17.0354 113.756 17.2146 114.156 17.573C114.555 17.9315 114.754 18.4691 114.754 19.186V23.5239H113.361V19.5526C113.345 19.0557 113.239 18.6972 113.044 18.4773C112.848 18.2492 112.543 18.1351 112.127 18.1351C111.891 18.1351 111.679 18.1799 111.492 18.2695C111.304 18.351 111.145 18.4691 111.015 18.6239C110.885 18.7705 110.783 18.9457 110.71 19.1493C110.636 19.353 110.6 19.5689 110.6 19.797V23.5239H109.207V17.2064ZM117.543 23.5239V17.2064H118.936V23.5239H117.543ZM118.643 14.5793H120.292L118.557 16.3266H117.543L118.643 14.5793ZM121.114 17.2064H122.629L124.23 22.0576H124.254L125.794 17.2064H127.236L124.975 23.5239H123.411L121.114 17.2064ZM133.694 19.8092C133.678 19.5892 133.629 19.3774 133.548 19.1738C133.474 18.9701 133.368 18.795 133.23 18.6483C133.1 18.4936 132.937 18.3714 132.741 18.2818C132.554 18.184 132.342 18.1351 132.106 18.1351C131.861 18.1351 131.637 18.1799 131.434 18.2695C131.238 18.351 131.067 18.4691 130.92 18.6239C130.782 18.7705 130.668 18.9457 130.578 19.1493C130.497 19.353 130.452 19.573 130.444 19.8092H133.694ZM130.444 20.7257C130.444 20.9701 130.476 21.2063 130.542 21.4344C130.615 21.6625 130.721 21.8621 130.859 22.0331C130.998 22.2042 131.173 22.3427 131.385 22.4486C131.597 22.5464 131.849 22.5952 132.142 22.5952C132.55 22.5952 132.876 22.5097 133.12 22.3386C133.372 22.1594 133.56 21.8947 133.682 21.5444H135.002C134.928 21.8865 134.802 22.192 134.623 22.4608C134.444 22.7297 134.228 22.9578 133.975 23.1451C133.723 23.3243 133.438 23.4588 133.12 23.5484C132.81 23.6461 132.485 23.695 132.142 23.695C131.645 23.695 131.206 23.6135 130.823 23.4506C130.44 23.2877 130.114 23.0596 129.845 22.7663C129.584 22.473 129.385 22.1228 129.246 21.7154C129.116 21.3081 129.051 20.8601 129.051 20.3713C129.051 19.9232 129.12 19.4996 129.259 19.1005C129.405 18.6932 129.609 18.3388 129.87 18.0374C130.138 17.7278 130.46 17.4834 130.835 17.3042C131.21 17.125 131.633 17.0354 132.106 17.0354C132.603 17.0354 133.047 17.1413 133.438 17.3531C133.837 17.5567 134.167 17.8296 134.427 18.1718C134.688 18.5139 134.875 18.909 134.99 19.3571C135.112 19.797 135.144 20.2532 135.087 20.7257H130.444ZM137.466 14.7992H138.859V23.5239H137.466V14.7992ZM146.344 17.2064H147.664V18.1351L147.688 18.1596C147.9 17.8093 148.177 17.5364 148.519 17.3409C148.861 17.1372 149.24 17.0354 149.655 17.0354C150.348 17.0354 150.894 17.2146 151.293 17.573C151.692 17.9315 151.891 18.4691 151.891 19.186V23.5239H150.498V19.5526C150.482 19.0557 150.376 18.6972 150.181 18.4773C149.985 18.2492 149.68 18.1351 149.264 18.1351C149.028 18.1351 148.816 18.1799 148.629 18.2695C148.442 18.351 148.283 18.4691 148.152 18.6239C148.022 18.7705 147.92 18.9457 147.847 19.1493C147.774 19.353 147.737 19.5689 147.737 19.797V23.5239H146.344V17.2064ZM157.54 23.695C157.034 23.695 156.582 23.6135 156.183 23.4506C155.792 23.2795 155.458 23.0474 155.181 22.7541C154.912 22.4608 154.705 22.1105 154.558 21.7032C154.42 21.2959 154.35 20.8479 154.35 20.3591C154.35 19.8784 154.42 19.4345 154.558 19.0272C154.705 18.6198 154.912 18.2695 155.181 17.9763C155.458 17.683 155.792 17.4549 156.183 17.292C156.582 17.1209 157.034 17.0354 157.54 17.0354C158.045 17.0354 158.493 17.1209 158.884 17.292C159.283 17.4549 159.617 17.683 159.886 17.9763C160.163 18.2695 160.37 18.6198 160.509 19.0272C160.656 19.4345 160.729 19.8784 160.729 20.3591C160.729 20.8479 160.656 21.2959 160.509 21.7032C160.37 22.1105 160.163 22.4608 159.886 22.7541C159.617 23.0474 159.283 23.2795 158.884 23.4506C158.493 23.6135 158.045 23.695 157.54 23.695ZM157.54 22.5952C157.849 22.5952 158.118 22.5301 158.346 22.3997C158.574 22.2694 158.762 22.0983 158.908 21.8865C159.055 21.6747 159.161 21.4385 159.226 21.1778C159.299 20.909 159.336 20.6361 159.336 20.3591C159.336 20.0902 159.299 19.8214 159.226 19.5526C159.161 19.2838 159.055 19.0475 158.908 18.8439C158.762 18.6321 158.574 18.461 158.346 18.3306C158.118 18.2003 157.849 18.1351 157.54 18.1351C157.23 18.1351 156.961 18.2003 156.733 18.3306C156.505 18.461 156.318 18.6321 156.171 18.8439C156.024 19.0475 155.914 19.2838 155.841 19.5526C155.776 19.8214 155.743 20.0902 155.743 20.3591C155.743 20.6361 155.776 20.909 155.841 21.1778C155.914 21.4385 156.024 21.6747 156.171 21.8865C156.318 22.0983 156.505 22.2694 156.733 22.3997C156.961 22.5301 157.23 22.5952 157.54 22.5952Z" fill="#455154"/>
<defs>
<linearGradient id="paint0_linear" x1="42.197" y1="20.1515" x2="19.8866" y2="42.462" gradientUnits="userSpaceOnUse">
<stop stop-color="#00A0FF"/>
<stop offset="0.01" stop-color="#00A1FF"/>
<stop offset="0.26" stop-color="#00BEFF"/>
<stop offset="0.51" stop-color="#00D2FF"/>
<stop offset="0.76" stop-color="#00DFFF"/>
<stop offset="1" stop-color="#00E3FF"/>
</linearGradient>
<linearGradient id="paint1_linear" x1="58.1925" y1="35.1626" x2="26.0298" y2="35.1626" gradientUnits="userSpaceOnUse">
<stop stop-color="#FFE000"/>
<stop offset="0.41" stop-color="#FFBD00"/>
<stop offset="0.78" stop-color="#FFA500"/>
<stop offset="1" stop-color="#FF9C00"/>
</linearGradient>
<linearGradient id="paint2_linear" x1="46.2265" y1="38.2206" x2="15.9651" y2="68.4687" gradientUnits="userSpaceOnUse">
<stop stop-color="#FF3A44"/>
<stop offset="1" stop-color="#C31162"/>
</linearGradient>
<linearGradient id="paint3_linear" x1="22.9204" y1="8.81027" x2="36.429" y2="22.3189" gradientUnits="userSpaceOnUse">
<stop stop-color="#32A071"/>
<stop offset="0.07" stop-color="#2DA771"/>
<stop offset="0.48" stop-color="#15CF74"/>
<stop offset="0.8" stop-color="#06E775"/>
<stop offset="1" stop-color="#00F076"/>
</linearGradient>
</defs>
</svg>
