<svg width="54" height="54" viewBox="0 0 54 54" fill="none" xmlns="http://www.w3.org/2000/svg">
<path d="M27.2561 34.5788C27.8108 34.5261 28.3361 34.3004 28.7579 33.9376L40.0979 24.2176C40.6696 23.7599 41.0303 23.0912 41.0978 22.3635C41.1653 21.6357 40.9354 20.9101 40.4608 20.3553C39.9841 19.7985 39.3048 19.461 38.575 19.4145C37.8451 19.3702 37.1279 19.6233 36.5879 20.1169L27.0029 28.3352L17.4179 20.1169C16.8779 19.6233 16.1608 19.3702 15.4309 19.4145C14.701 19.4588 14.0218 19.7984 13.5451 20.3532C13.0705 20.91 12.8406 21.6336 12.9081 22.3634C12.9756 23.0912 13.3363 23.7598 13.9079 24.2176L25.2479 33.9376C25.8027 34.4143 26.5283 34.6463 27.2561 34.5788Z" fill="black"/>
</svg>
