<svg width="77" height="77" viewBox="0 0 77 77" fill="none" xmlns="http://www.w3.org/2000/svg">
<path d="M11.3258 9.53735C8.384 9.53735 5.96094 11.9605 5.96094 14.9022V51.8605C5.96094 54.8022 8.38408 57.2253 11.3258 57.2253H30.9967V63.1863H23.2744C22.7945 63.1803 22.3325 63.3651 21.9928 63.7019C21.65 64.0357 21.4593 64.4947 21.4593 64.9746C21.4593 65.4544 21.65 65.9134 21.9928 66.2473C22.3325 66.5841 22.7945 66.7688 23.2744 66.7629H43.5145C44.5011 66.7629 45.3029 65.9611 45.3029 64.9746V57.2255H64.9738C67.9156 57.2255 70.3387 54.8024 70.3387 51.8607V44.7075C70.3387 43.721 69.5369 42.9192 68.5503 42.9192H13.7095C13.2297 42.9132 12.7707 43.098 12.4279 43.4348C12.0881 43.7686 11.8944 44.2277 11.8944 44.7075C11.8944 45.1874 12.0881 45.6464 12.4279 45.9802C12.7707 46.317 13.2297 46.5018 13.7095 46.4958H66.7619V51.8607C66.7619 52.8829 65.9959 53.649 64.9735 53.649H11.3253C10.303 53.649 9.53698 52.883 9.53698 51.8607V14.9023C9.53698 13.8801 10.303 13.114 11.3253 13.114H64.9735C65.9958 13.114 66.7619 13.88 66.7619 14.9023V38.7462C66.7559 39.226 66.9407 39.685 67.2775 40.0278C67.6113 40.3676 68.0703 40.5613 68.5502 40.5613C69.03 40.5613 69.489 40.3676 69.8229 40.0278C70.1596 39.685 70.3444 39.226 70.3385 38.7462V14.9023C70.3385 11.9606 67.9153 9.53752 64.9737 9.53752L11.3258 9.53735ZM34.5737 57.225H41.7268V63.186H34.5737V57.225ZM49.4759 63.186C48.996 63.18 48.537 63.3648 48.1943 63.7016C47.8545 64.0354 47.6608 64.4944 47.6608 64.9743C47.6608 65.4541 47.8545 65.9131 48.1943 66.247C48.537 66.5837 48.996 66.7685 49.4759 66.7626H53.0525C53.5323 66.7685 53.9913 66.5837 54.3341 66.247C54.6738 65.9131 54.8676 65.4541 54.8676 64.9743C54.8676 64.4944 54.6738 64.0354 54.3341 63.7016C53.9913 63.3648 53.5323 63.18 53.0525 63.186H49.4759Z" fill="black"/>
</svg>
